Pengaruh Faktor Ekonomi Makro terhadap Pertumbuhan Ekonomi Indonesia: Analisis Multivariat 1990-2022.
…
dimana: - \(Y\) adalah pertumbuhan ekonomi - \(\beta_0\) adalah konstanta - \(\beta_1, \beta_2, \ldots, \beta_n\) adalah koefisien regresi yang menunjukkan pengaruh variabel independen terhadap variabel dependen - \(X_1, X_2, \ldots, X_n\) adalah variabel-variabel independen (dalam hal ini, variabel-variabel ekonomi makro) - \(\epsilon\) adalah galat atau kesalahan pengukuran

Dengan menggunakan model ini, kita dapat mengestimasi pengaruh masing-masing variabel ekonomi makro terhadap pertumbuhan ekonomi. Selain itu, kita juga dapat menguji signifikansi pengaruh tersebut menggunakan uji t-statistik atau uji F. Jika nilai p kurang dari 0,05, maka kita dapat menyimpulkan bahwa variabel tersebut memiliki pengaruh yang signifikan terhadap pertumbuhan ekonomi.

4 Pembahasan

4.1 Pembahasan masalah

4.1.1 Plot dan Data

#impor dataset
read_excel("pertumbuhan.xlsx")

# A tibble: 33 × 10
    year           pdb  pdbp       pop  peng    kons   inv     eks     imp  infl
   <dbl>         <dbl> <dbl>     <dbl> <dbl>   <dbl> <dbl>   <dbl>   <dbl> <dbl>
 1  1990 106140727334.  583. 182159874  2.5  6.74e10  32.7 2.90e10 2.72e10  7.82
 2  1991 116621996217.  629. 185361228  2.62 7.49e10  31.9 3.31e10 3.09e10  9.42
 3  1992 128026966580.  679. 188558416  2.73 8.05e10  30.2 3.88e10 3.47e10  7.52
 4  1993 158006700302.  824. 191737287  2.78 9.25e10  28.3 4.23e10 3.76e10  9.67
 5  1994 176892143932.  907. 194928533  4.37 1.06e11  29.6 4.69e10 4.49e10  8.53
 6  1995 202132028723. 1020. 198140162  4.60 1.24e11  30.4 5.32e10 5.59e10  9.42
 7  1996 227369679375. 1129. 201373791  4.86 1.42e11  31.6 5.87e10 6.01e10  7.97
 8  1997 215748998610. 1054. 204628007  4.68 1.33e11  30.3 6.01e10 6.07e10  6.23
 9  1998  95445547873.  459. 207855486  5.46 6.47e10  27.4 5.06e10 4.12e10 58.5 
10  1999 140001351215.  664. 210996910  6.36 1.04e11  22.1 4.97e10 3.84e10 20.5 
# ℹ 23 more rows
…
